Session 1
…
---

# Looking at our data

The _class_ of this `dat` object is a `data.frame`. `data.frame`s are R's representation of tabular data. `dat` is also a `tbl_df` ("tibble"), which is the Tidyverse's version of a `data.frame` that is a little bit more stringent (i.e. safe) than base R's version, and it has a prettier `print()` method:

```r
print(dat)
```

```
## # A tibble: 1,000 × 6
##    sch_id st_id treated   age female std_scores
##     <dbl> <dbl>   <dbl> <dbl>  <dbl>      <dbl>
##  1      1     1       0     8      0     -0.159
##  2      1     2       1    10      0     -0.578
##  3      1     3       0    12      0     -0.807
##  4      1     4       1     7      0      0.163
##  5      1     5       1    11      0     -0.621
##  6      1     6       1    11      0     -0.643
##  7      1     7       0     9      0     -0.337
##  8      1     8       1     9      0     -0.345
##  9      1     9       1     9      1      0.160
## 10      1    10       1     9      0     -0.248
## # ℹ 990 more rows
```
…
## Filtering

Looks for rows with a provided comparison, usually with `<`, `>`, `<=`, `>=`, or `==` (note: two equals!).

```r
filter(dat, treated == 1)
```

```
## # A tibble: 499 × 6
##    sch_id st_id treated   age female std_scores
##     <dbl> <dbl>   <dbl> <dbl>  <dbl>      <dbl>
##  1      1     2       1    10      0     -0.578
##  2      1     4       1     7      0      0.163
##  3      1     5       1    11      0     -0.621
##  4      1     6       1    11      0     -0.643
##  5      1     8       1     9      0     -0.345
##  6      1     9       1     9      1      0.160
##  7      1    10       1     9      0     -0.248
##  8      1    11       1     9      0     -0.365
##  9      1    13       1     9      1      0.220
## 10      1    15       1    11      0     -0.771
## # ℹ 489 more rows
```
…
